Ko-Lin Chang = 09-04
Angus = 01-12
Marcus = 01-18
Ethan = 02-25
Jeff = 03-14
Toon =  05-24
Ian = 05-24
Stephen = 07-08
Alex = 07-22
Ashley = 08-23
Riaan =  12-01
Jonathan =  06-26
Angela = 05-19
Shane = 01-06 
Nabil = 01-10 
Nicholas = 01-31
Yvette = 01-31
Shaun = 02-10
Judith = 02-24 
Matthew = 02-27
Sarah = 03-11
Terry = 03-07
Byron = 03-07
Elliott = 03-07
Alexei = 03-20
Joshua = 03-26 
James = 04-01
Lorraine = 04-28 
Ben Macnee = 04-03
Angela = 05-19
Vered =  05-21
Ian = 05-24
Brian = 06-02
Kahl = 06-16
Holly = 06-19
Analiza = 06-26
Jonathan = 06-26
Stephen = 07-08
Marco = 08-21
Athan = 08-17
Chris = 08-30
Richard = 09-19
Andrew = 09-30
George = 10-03
David = 10-05
Sam = 10-13
Patrick = 10-16
Andrew = 11-03
Ben = 11-10
Samuel = 11-11
Mark = 15/11 11 15
Alexandra = 11-23
Stuart = 11-27
Duncan = 12-02
Rowan = 12-03
Dan Macnee = 12-10
Tsakmakis = 12-12
Bianca = 12-27
Amber = 12-30 
