{
   "Holidays": [
      { 
         "Description": "New Year's Day",
         "Date": "2016-01-01"
      },
      { 
         "Description": "New Year's Day",
         "Date": "2017-01-01"
      },
      { 
         "Description": "New Year's Day (additional day)",
         "Date": "2017-01-02"
      },
      { 
         "Description": "Australia Day",
         "Date": "2016-01-26"
      },
      { 
         "Description": "Australia Day",
         "Date": "2017-01-26"
      },
      { 
         "Description": "Labour Day",
         "Date": "2016-03-14"
      },
      { 
         "Description": "Labour Day",
         "Date": "2017-03-13"
      },
      { 
         "Description": "Good Friday",
         "Date": "2016-03-25"
      },
      { 
         "Description": "Good Friday",
         "Date": "2017-04-14"
      },
      { 
         "Description": "Saturday before Easter Sunday",
         "Date": "2016-03-26"
      },
      { 
         "Description": "Saturday before Easter Sunday",
         "Date": "2017-04-15"
      },
      { 
         "Description": "Easter Sunday",
         "Date": "2016-03-27"
      },
      { 
         "Description": "Easter Sunday",
         "Date": "2017-04-16"
      },
      { 
         "Description": "Easter Monday",
         "Date": "2016-03-28"
      },
      { 
         "Description": "Easter Monday",
         "Date": "2017-04-17"
      },
      { 
         "Description": "ANZAC Day",
         "Date": "2016-04-25"
      },
      { 
         "Description": "ANZAC Day",
         "Date": "2017-04-25"
      },
      { 
         "Description": "Queen's Birthday",
         "Date": "2016-06-13"
      },
      { 
         "Description": "Queen's Birthday",
         "Date": "2017-06-12"
      },
      { 
         "Description": "Friday before the AFL Grand Final",
         "Date": "2016-09-30"
      },
      { 
         "Description": "Friday before the AFL Grand Final",
         "Date": "2017-09-29"
      },
      { 
         "Description": "Melbourne Cup",
         "Date": "2016-11-01"
      },
      { 
         "Description": "Melbourne Cup",
         "Date": "2017-11-07"
      },
      { 
         "Description": "Christmas Day",
         "Date": "2016-12-27"
      },
      { 
         "Description": "Christmas Day",
         "Date": "2017-12-25"
      },
      { 
         "Description": "Boxing Day",
         "Date": "2016-12-26"
      }, 
      { 
         "Description": "Boxing Day",
         "Date": "2017-12-26"
      }
   ]
} 
